{
  "project_info": {
    "project_number": "863203644523",
    "project_id": "agromatenepal",
    "storage_bucket": "agromatenepal.appspot.com"
  },
  "client": [
    {
      "client_info": {
        "mobilesdk_app_id": "1:863203644523:android:8a725bb058e3f796380d2e",
        "android_client_info": {
          "package_name": "com.sdtechcompany.agromate"
        }
      },
      "oauth_client": [
        {
          "client_id": "863203644523-c7g70k0pogmv86jg31s24t3jo1n1v7h9.apps.googleusercontent.com",
          "client_type": 1,
          "android_info": {
            "package_name": "com.sdtechcompany.agromate",
            "certificate_hash": "5a53eaabcb4e3ced2f7a0b51efe33abf746c9893"
          }
        },
        {
          "client_id": "863203644523-dvod89j0phv25olai56g6lm4dan1gdsp.apps.googleusercontent.com",
          "client_type": 3
        }
      ],
      "api_key": [
        {
          "current_key": "AIzaSyBhXjW6mmdP4yKvNugY3mYbjvLDVUeFKz4"
        }
      ],
      "services": {
        "appinvite_service": {
          "other_platform_oauth_client": [
            {
              "client_id": "863203644523-dvod89j0phv25olai56g6lm4dan1gdsp.apps.googleusercontent.com",
              "client_type": 3
            }
          ]
        }
      },
      "admob_app_id": "ca-app-pub-2211889863657710~3007746648"
    }
  ],
  "configuration_version": "1"
}